{
  "type": "service_account",
  "project_id": "steady-math-394705",
  "private_key_id": "b931908670bc4efbc9583bb940723d7a4beaeefa",
  "private_key": "-----BEGIN PRIVATE KEY-----\nMIIEvgIBADANBgkqhkiG9w0BAQEFAASCBKgwggSkAgEAAoIBAQC+0hTfEABBpTXQ\nEuipz1P0cRBYyXeddp+7Lcn6rFp097wFOj5/yzahnFRbSqEfI5jsV446O3AuqNtj\nHc/NH+hosvlbY88GCN1t4Di7zkUii+nhClVQ0eXiStrDb35bet7THi5dIOUCl73T\nExl1GuEEwI/FBaghtE+UtqwksRTf6kSqHW88szqSfBor4aT4yL/wxMwrkFFfFzgw\nF1jGD0Zo7tJX+rciX75pFnsLbF1aaOcvTcQHBlQrFMCcbrVItQqK6DyzjRLtZz1Q\nyNzWXHDyqEgdxSzQevqHjKPObDuI/W5viR99Ai5G742iwk9za8GSuPx9OXTy+DHA\nRsZRV9v/AgMBAAECggEAV9Ly3jNMGuqB2PFK+hS9LCz5fBPFpMha/dg2NNQskdcP\nR0ymRUTvMPR1csrnWyCUGnq1sCF5IVCAIJ8w69S6r61nzOMj/kAIQbDIC9AEy8Cf\ndP6/g4IHjt4qz3Y6LrpfYcVrS1t/a3ERYdtRhS9Iz1odEW3oExMc6XIlyoFh/SfW\nnMxrMs2GhMArPF5Xy2HUEg4+yFUSQMhbforCGPw7y9+A2a+5gxYvFwwj18M2a6Yz\nQfBdUC90tk84aHicrFkJYyRQ8iVw+8KFIbJQ0nmXc8MjOEvOeLzhr5UQrS35Hu7e\n7qwOkir1NgNYrjmA9Yg7WbxvvUURHx2uXD5IpIc8EQKBgQDoTXlzy4JIbTW+an+A\nBAuyjPRcMWX6ztHh2qOQxjwFkfGT50ijHMbsrtaE8NXorKd3nTghNMFgdD/CzN2S\n6ZwDTm5NyQfkBtCPLobN/xFWYThnN4Ge8GjG4vS6gmh9ZAzZOtwpVWaa7iSdZ1so\nlC1ZmTE9CFl5NgITO9CsEpZMSQKBgQDSSVCcvWilD/Uk8ujtsrPfr+zHEXJy9oli\nqqUT/NFjUGEftNWp1wEzuj1J7tXr8Tty6dZLNABrKCU7ZY2K/mfENg3Sg5EmKmoH\npY0w4GNejmTCqhBV9yC8mxKmusabVJzQq81lyy+W5zqf0+iBBeJsM55cvoL+elr6\nLy0hYEGWBwKBgQDFs0G8saMEPqVxk7NE4KyP3XQNjiDrTd7DZ06y5HKqjuVY6Yog\n/1mwjq+U3l4+Mcooe04MvJginWyyPaYI5PXYvoQTgRZNExul74PchspbiEv3U/7l\npFaXhQmgPWHt7RseOQCr0LmM+0WADDlBlLHvwfdsqNF03ejwM4TJHNx6uQKBgDQe\nTad7XltCuDx/I/H9z40KOkIgdeA+cFCPALkSeQcHXfsQw8ADdN3QM+6GDmka8eQK\nRr1+1ve4DHpLMiiX4zoDN6vMRgZSjtL0WikaBCbkXd7NbZ0Q0gFM4fOG6UCIWRFy\n80ZedJ4PEz2XtNF9lt/Ab2iHI0pVIwVM+f+Crt6zAoGBAIqFDhNBlp2XVvUETObc\n5le/7kaExVqWZZaxOEArOdmVxS5GjP4hlAnRhPS9J3dVCWn+71b3QP2MyJVBDB5D\n8cZn9FmC9igFTLyRw5KE7RIjwUvZ2mF/nT4KuD7LF2CY55D590f48PIi7R72PbDD\niTFNtY7ikWFlZb+z13BAWyse\n-----END PRIVATE KEY-----\n",
  "client_email": "686409041348-compute@developer.gserviceaccount.com",
  "client_id": "104140795267550997166",
  "auth_uri": "https://accounts.google.com/o/oauth2/auth",
  "token_uri": "https://oauth2.googleapis.com/token",
  "auth_provider_x509_cert_url": "https://www.googleapis.com/oauth2/v1/certs",
  "client_x509_cert_url": "https://www.googleapis.com/robot/v1/metadata/x509/686409041348-compute%40developer.gserviceaccount.com",
  "universe_domain": "googleapis.com"
}
